{
  "profiles": {
    "NanoC Compiler": {
      "commandName": "Project",
      "commandLineArgs": "translate -i Samples\\new_string.nc -o +"
    },
    "Docker": {
      "commandName": "Docker"
    }
  }
}